…
``` r
only_in_amyloid = subset(amyloid_df, !study_id %in% baseline_df$id)
print(only_in_amyloid)
```

    ## # A tibble: 80 × 3
    ##    study_id time     biomarker_value
    ##       <dbl> <chr>    <chr>          
    ##  1       72 baseline 0.106965463    
    ##  2       72 time_2   <NA>           
    ##  3       72 time_4   0.107266218    
    ##  4       72 time_6   0.106665207    
    ##  5       72 time_8   <NA>           
    ##  6      234 baseline 0.110521689    
    ##  7      234 time_2   0.110988335    
    ##  8      234 time_4   0.110318671    
    ##  9      234 time_6   0.107334344    
    ## 10      234 time_8   0.108868811    
    ## # ℹ 70 more rows
…
